<?xml version="1.0" encoding="UTF-8"?>
<session version="1.0">
<refactoring comment="Copy package &apos;application&apos; to &apos;jzy3d-javafx/src/main/java/org.jzy3d.demos.javafx&apos;&#x0D;&#x0A;- Original project: &apos;FX Vorlage&apos;&#x0D;&#x0A;- Destination element: &apos;jzy3d-javafx/src/main/java/org.jzy3d.demos.javafx&apos;&#x0D;&#x0A;- Original element: &apos;FX Vorlage/src/application&apos;" description="Copy package" destination="=jzy3d-javafx/src\/main\/java&lt;org.jzy3d.demos.javafx" element1="/src&lt;application" flags="589830" fragments="1" id="org.eclipse.jdt.ui.copy" policy="org.eclipse.jdt.ui.copyPackages" stamp="1581519419362" version="1.0"/>
</session>